%!PS-Adobe-3.0 EPSF-3.0
%%Creator: cairo 1.16.0 (https://cairographics.org)
%%CreationDate: Sat Oct 16 23:16:33 2021
%%Pages: 1
%%DocumentData: Clean7Bit
%%LanguageLevel: 2
%%BoundingBox: 0 0 150 150
%%EndComments
%%BeginProlog
50 dict begin
/q { gsave } bind def
/Q { grestore } bind def
/cm { 6 array astore concat } bind def
/w { setlinewidth } bind def
/J { setlinecap } bind def
/j { setlinejoin } bind def
/M { setmiterlimit } bind def
/d { setdash } bind def
/m { moveto } bind def
/l { lineto } bind def
/c { curveto } bind def
/h { closepath } bind def
/re { exch dup neg 3 1 roll 5 3 roll moveto 0 rlineto
      0 exch rlineto 0 rlineto closepath } bind def
/S { stroke } bind def
/f { fill } bind def
/f* { eofill } bind def
/n { newpath } bind def
/W { clip } bind def
/W* { eoclip } bind def
/BT { } bind def
/ET { } bind def
/BDC { mark 3 1 roll /BDC pdfmark } bind def
/EMC { mark /EMC pdfmark } bind def
/cairo_store_point { /cairo_point_y exch def /cairo_point_x exch def } def
/Tj { show currentpoint cairo_store_point } bind def
/TJ {
  {
    dup
    type /stringtype eq
    { show } { -0.001 mul 0 cairo_font_matrix dtransform rmoveto } ifelse
  } forall
  currentpoint cairo_store_point
} bind def
/cairo_selectfont { cairo_font_matrix aload pop pop pop 0 0 6 array astore
    cairo_font exch selectfont cairo_point_x cairo_point_y moveto } bind def
/Tf { pop /cairo_font exch def /cairo_font_matrix where
      { pop cairo_selectfont } if } bind def
/Td { matrix translate cairo_font_matrix matrix concatmatrix dup
      /cairo_font_matrix exch def dup 4 get exch 5 get cairo_store_point
      /cairo_font where { pop cairo_selectfont } if } bind def
/Tm { 2 copy 8 2 roll 6 array astore /cairo_font_matrix exch def
      cairo_store_point /cairo_font where { pop cairo_selectfont } if } bind def
/g { setgray } bind def
/rg { setrgbcolor } bind def
/d1 { setcachedevice } bind def
/cairo_data_source {
  CairoDataIndex CairoData length lt
    { CairoData CairoDataIndex get /CairoDataIndex CairoDataIndex 1 add def }
    { () } ifelse
} def
/cairo_flush_ascii85_file { cairo_ascii85_file status { cairo_ascii85_file flushfile } if } def
/cairo_image { image cairo_flush_ascii85_file } def
/cairo_imagemask { imagemask cairo_flush_ascii85_file } def
%%EndProlog
%%BeginSetup
%%EndSetup
%%Page: 1 1
%%BeginPageSetup
%%PageBoundingBox: 0 0 150 150
%%EndPageSetup
q 0 0 150 150 rectclip
1 0 0 -1 0 150 cm q
0.180392 0.203922 0.211765 rg
0 0 150 150 rectfill
1 g
190.105 39.5 m 189.738 33.469 184.777 28.68 178.652 28.68 c 167.121 28.68
 l 167.121 24.828 l 167.121 18.457 161.957 13.297 155.59 13.297 c 117.152
 13.297 l 110.785 13.297 105.621 18.457 105.621 24.828 c 105.621 28.676 
l 94.09 28.676 l 87.961 28.676 83 33.465 82.633 39.496 c 82.559 39.496 l
 82.559 47.891 l 82.559 52.133 86.004 55.578 90.246 55.578 c 90.246 120.922
 l 90.246 129.41 97.129 136.297 105.621 136.297 c 167.121 136.297 l 175.613
 136.297 182.496 129.41 182.496 120.922 c 182.496 55.578 l 186.738 55.578
 190.184 52.133 190.184 47.891 c 190.184 39.5 l h
113.309 24.832 m 113.309 22.703 115.027 20.988 117.152 20.988 c 155.59 
20.988 l 157.715 20.988 159.434 22.703 159.434 24.832 c 159.434 28.676 l
 113.309 28.676 l h
174.809 120.926 m 174.809 125.16 171.355 128.613 167.121 128.613 c 105.621
 128.613 l 101.383 128.613 97.934 125.16 97.934 120.926 c 97.934 55.582 
l 174.809 55.582 l h
182.496 44.047 m 182.496 47.891 l 90.246 47.891 l 90.246 40.207 l 90.246
 38.078 91.965 36.363 94.09 36.363 c 178.652 36.363 l 180.777 36.363 182.496
 38.078 182.496 40.207 c h
182.496 44.047 m f*
109.465 120.938 m 117.152 120.938 l 119.277 120.938 120.996 119.223 120.996
 117.094 c 120.996 67.125 l 120.996 65 119.277 63.281 117.152 63.281 c 109.465
 63.281 l 107.34 63.281 105.621 65 105.621 67.125 c 105.621 117.094 l 105.621
 119.223 107.34 120.938 109.465 120.938 c h
109.465 67.121 m 117.152 67.121 l 117.152 117.09 l 109.465 117.09 l h
109.465 67.121 m f*
132.527 120.938 m 140.215 120.938 l 142.34 120.938 144.059 119.223 144.059
 117.094 c 144.059 67.125 l 144.059 65 142.34 63.281 140.215 63.281 c 132.527
 63.281 l 130.402 63.281 128.684 65 128.684 67.125 c 128.684 117.094 l 128.684
 119.223 130.402 120.938 132.527 120.938 c h
132.527 67.121 m 140.215 67.121 l 140.215 117.09 l 132.527 117.09 l h
132.527 67.121 m f*
72.953 32.035 m 67.434 32.035 l 66.805 29.719 65.883 27.488 64.688 25.406
 c 68.59 21.535 l 69.762 20.363 69.762 18.461 68.59 17.289 c 62.23 10.898
 l 61.059 9.727 59.156 9.727 57.984 10.898 c 54.07 14.801 l 51.988 13.609
 49.766 12.688 47.453 12.055 c 47.453 6.535 l 47.453 4.879 46.109 3.535 
44.453 3.535 c 35.453 3.535 l 33.797 3.535 32.453 4.879 32.453 6.535 c 32.453
 12.055 l 30.141 12.688 27.918 13.609 25.84 14.801 c 21.953 10.898 l 20.781
 9.727 18.879 9.727 17.707 10.898 c 11.32 17.258 l 10.145 18.43 10.145 20.332
 11.32 21.504 c 15.234 25.418 l 14.035 27.5 13.109 29.723 12.473 32.035 
c 6.953 32.035 l 5.297 32.035 3.953 33.379 3.953 35.035 c 3.953 44.035 l
 3.953 45.691 5.297 47.035 6.953 47.035 c 12.473 47.035 l 13.102 49.352 
14.027 51.578 15.219 53.664 c 11.32 57.535 l 10.145 58.707 10.145 60.609
 11.32 61.781 c 17.68 68.141 l 18.852 69.312 20.75 69.312 21.922 68.141 
c 25.84 64.223 l 27.918 65.43 30.141 66.367 32.453 67.016 c 32.453 72.535
 l 32.453 74.191 33.797 75.535 35.453 75.535 c 44.453 75.535 l 46.109 75.535
 47.453 74.191 47.453 72.535 c 47.453 67.016 l 49.766 66.383 51.988 65.461
 54.07 64.27 c 57.953 68.168 l 59.125 69.344 61.027 69.344 62.199 68.168
 c 68.559 61.809 l 69.73 60.637 69.73 58.734 68.559 57.562 c 64.645 53.648
 l 65.852 51.57 66.789 49.348 67.434 47.035 c 72.953 47.035 l 74.609 47.035
 75.953 45.691 75.953 44.035 c 75.953 35.035 l 75.953 33.379 74.609 32.035
 72.953 32.035 c h
72.953 44.035 m 66.262 44.035 l 65.547 44.016 64.922 44.508 64.762 45.203
 c 64.133 47.977 63.035 50.625 61.523 53.035 c 61.152 53.629 61.238 54.398
 61.734 54.895 c 66.473 59.633 l 60.113 65.996 l 55.375 61.254 l 54.855 
60.746 54.047 60.684 53.453 61.105 c 51.027 62.637 48.359 63.742 45.562 
64.375 c 44.867 64.531 44.375 65.16 44.395 65.875 c 44.395 72.535 l 35.453
 72.535 l 35.453 65.844 l 35.473 65.129 34.98 64.5 34.285 64.344 c 31.508
 63.715 28.863 62.617 26.453 61.105 c 25.859 60.73 25.09 60.82 24.594 61.312
 c 19.855 66.055 l 13.434 59.68 l 18.172 54.938 l 18.691 54.438 18.781 53.637
 18.383 53.035 c 16.855 50.609 15.75 47.941 15.113 45.145 c 14.957 44.445
 14.328 43.957 13.613 43.973 c 6.953 43.973 l 6.953 35.035 l 13.645 35.035
 l 14.359 35.051 14.988 34.562 15.145 33.863 c 15.773 31.09 16.871 28.445
 18.383 26.035 c 18.758 25.441 18.668 24.668 18.172 24.176 c 13.434 19.375
 l 19.793 13.016 l 24.535 17.754 l 25.039 18.281 25.848 18.371 26.453 17.965
 c 28.879 16.434 31.547 15.328 34.344 14.695 c 35.043 14.539 35.531 13.91
 35.512 13.195 c 35.512 6.535 l 44.512 6.535 l 44.512 13.223 l 44.496 13.938
 44.984 14.566 45.684 14.723 c 48.438 15.363 51.062 16.457 53.453 17.965
 c 54.047 18.336 54.82 18.25 55.312 17.754 c 60.055 13.016 l 66.414 19.375
 l 61.672 24.113 l 61.164 24.633 61.102 25.441 61.523 26.035 c 63.055 28.461
 64.16 31.129 64.793 33.926 c 64.949 34.621 65.578 35.113 66.293 35.094 
c 72.953 35.094 l h
72.953 44.035 m f
39.953 26.035 m 34.492 26.035 29.57 29.324 27.48 34.367 c 25.391 39.414
 26.547 45.219 30.406 49.082 c 34.27 52.941 40.074 54.098 45.121 52.008 
c 50.164 49.918 53.453 44.996 53.453 39.535 c 53.453 32.078 47.41 26.035
 39.953 26.035 c h
39.953 50.035 m 35.707 50.035 31.879 47.477 30.254 43.551 c 28.629 39.629
 29.527 35.113 32.527 32.109 c 35.531 29.105 40.047 28.207 43.973 29.832
 c 47.895 31.457 50.453 35.289 50.453 39.535 c 50.453 45.332 45.754 50.035
 39.953 50.035 c h
39.953 50.035 m f
46.52 104.066 m 41 104.066 l 40.367 101.746 39.445 99.52 38.254 97.434 
c 42.152 93.566 l 43.328 92.395 43.328 90.492 42.152 89.32 c 35.793 82.93
 l 34.621 81.758 32.719 81.758 31.547 82.93 c 27.633 86.832 l 25.555 85.641
 23.332 84.715 21.02 84.086 c 21.02 78.566 l 21.02 76.91 19.676 75.566 18.02
 75.566 c 9.02 75.566 l 7.359 75.566 6.02 76.91 6.02 78.566 c 6.02 84.086
 l 3.707 84.715 1.484 85.641 -0.598 86.832 c -4.48 82.93 l -5.652 81.758
 -7.555 81.758 -8.727 82.93 c -15.117 89.289 l -16.289 90.461 -16.289 92.363
 -15.117 93.535 c -11.203 97.449 l -12.398 99.531 -13.324 101.754 -13.961
 104.066 c -19.48 104.066 l -21.141 104.066 -22.48 105.41 -22.48 107.066
 c -22.48 116.066 l -22.48 117.723 -21.141 119.066 -19.48 119.066 c -13.961
 119.066 l -13.332 121.383 -12.41 123.609 -11.219 125.695 c -15.117 129.566
 l -16.289 130.738 -16.289 132.637 -15.117 133.809 c -8.758 140.172 l -7.586
 141.344 -5.684 141.344 -4.512 140.172 c -0.598 136.254 l 1.48 137.461 3.703
 138.398 6.02 139.047 c 6.02 144.566 l 6.02 146.223 7.359 147.566 9.02 147.566
 c 18.02 147.566 l 19.676 147.566 21.02 146.223 21.02 144.566 c 21.02 139.047
 l 23.332 138.414 25.555 137.492 27.633 136.301 c 31.52 140.199 l 32.691
 141.375 34.59 141.375 35.762 140.199 c 42.125 133.84 l 43.297 132.668 43.297
 130.766 42.125 129.594 c 38.207 125.68 l 39.414 123.602 40.352 121.379 
41 119.066 c 46.52 119.066 l 48.176 119.066 49.52 117.723 49.52 116.066 
c 49.52 107.066 l 49.52 105.41 48.176 104.066 46.52 104.066 c h
46.52 116.066 m 39.828 116.066 l 39.113 116.047 38.484 116.539 38.328 117.234
 c 37.695 120.008 36.602 122.656 35.09 125.066 c 34.715 125.66 34.801 126.43
 35.297 126.926 c 40.039 131.664 l 33.68 138.023 l 28.938 133.285 l 28.418
 132.777 27.609 132.715 27.02 133.137 c 24.594 134.664 21.926 135.773 19.129
 136.406 c 18.43 136.562 17.941 137.191 17.957 137.906 c 17.957 144.566 
l 9.02 144.566 l 9.02 137.875 l 9.035 137.16 8.547 136.531 7.848 136.375
 c 5.074 135.746 2.426 134.648 0.02 133.137 c -0.574 132.762 -1.348 132.848
 -1.844 133.344 c -6.582 138.086 l -13 131.711 l -8.262 126.969 l -7.742
 126.469 -7.652 125.668 -8.051 125.066 c -9.582 122.641 -10.688 119.973 
-11.32 117.176 c -11.48 116.477 -12.105 115.988 -12.82 116.004 c -19.48 
116.004 l -19.48 107.066 l -12.793 107.066 l -12.078 107.082 -11.449 106.594
 -11.293 105.895 c -10.66 103.121 -9.566 100.473 -8.051 98.066 c -7.68 97.473
 -7.766 96.699 -8.262 96.207 c -13 91.406 l -6.641 85.047 l -1.902 89.785
 l -1.398 90.312 -0.586 90.402 0.02 89.996 c 2.441 88.465 5.113 87.359 7.906
 86.727 c 8.605 86.566 9.094 85.941 9.078 85.227 c 9.078 78.566 l 18.078
 78.566 l 18.078 85.254 l 18.062 85.969 18.551 86.598 19.25 86.754 c 22 
87.391 24.629 88.488 27.02 89.996 c 27.609 90.367 28.383 90.281 28.879 89.785
 c 33.617 85.047 l 39.977 91.406 l 35.238 96.145 l 34.73 96.664 34.668 97.473
 35.09 98.066 c 36.617 100.492 37.723 103.16 38.359 105.957 c 38.516 106.652
 39.145 107.145 39.859 107.125 c 46.52 107.125 l h
46.52 116.066 m f
13.52 98.066 m 8.059 98.066 3.137 101.355 1.047 106.398 c -1.043 111.445
 0.109 117.25 3.973 121.109 c 7.832 124.973 13.641 126.129 18.684 124.039
 c 23.73 121.949 27.02 117.027 27.02 111.566 c 27.02 104.109 20.973 98.066
 13.52 98.066 c h
13.52 122.066 m 9.27 122.066 5.441 119.508 3.816 115.582 c 2.191 111.66
 3.09 107.145 6.094 104.141 c 9.098 101.137 13.613 100.238 17.535 101.863
 c 21.461 103.488 24.02 107.32 24.02 111.566 c 24.02 117.363 19.316 122.066
 13.52 122.066 c h
13.52 122.066 m f
Q Q
showpage
%%Trailer
end
%%EOF
